%YAML 1.1
%TAG !u! tag:unity3d.com,2011:
--- !u!114 &11400000
MonoBehaviour:
  m_ObjectHideFlags: 0
  m_CorrespondingSourceObject: {fileID: 0}
  m_PrefabInternal: {fileID: 0}
  m_GameObject: {fileID: 0}
  m_Enabled: 1
  m_EditorHideFlags: 0
  m_Script: {fileID: 11500000, guid: 57aaeef806627ae40978cdea02fba5c2, type: 3}
  m_Name: Ancient Learning
  m_EditorClassIdentifier: 
  CardName: Ancient Learning
  Description: Old books give you knowledge and refill your mana by {0}.
  Art: {fileID: 21300000, guid: a19a4faefcdd464479c2b32ffa03ee07, type: 3}
  Cost: 0
  CostType: 0
  CardEffectType: 3
  BaseEffectValue: 10
  BaseCardCost: 0
  BaseEffectType: 3
  EffectValue: 8
