%YAML 1.1
%TAG !u! tag:unity3d.com,2011:
--- !u!114 &11400000
MonoBehaviour:
  m_ObjectHideFlags: 0
  m_CorrespondingSourceObject: {fileID: 0}
  m_PrefabInternal: {fileID: 0}
  m_GameObject: {fileID: 0}
  m_Enabled: 1
  m_EditorHideFlags: 0
  m_Script: {fileID: 11500000, guid: 57aaeef806627ae40978cdea02fba5c2, type: 3}
  m_Name: MeteorRain
  m_EditorClassIdentifier: 
  CardName: Meteor Rain
  Description: Rains meteors on all enemies for {0} damage.
  Art: {fileID: 21300000, guid: 48ee3112496d046409ab4d4bac4ec03e, type: 3}
  Cost: 4
  CostType: 0
  CardEffectType: 1
  BaseEffectValue: 4
  BaseCardCost: 5
  BaseEffectType: 1
  EffectValue: 4
