%YAML 1.1
%TAG !u! tag:unity3d.com,2011:
--- !u!114 &11400000
MonoBehaviour:
  m_ObjectHideFlags: 0
  m_CorrespondingSourceObject: {fileID: 0}
  m_PrefabInternal: {fileID: 0}
  m_GameObject: {fileID: 0}
  m_Enabled: 1
  m_EditorHideFlags: 0
  m_Script: {fileID: 11500000, guid: 01b459e333b7530499df24c90a8a4705, type: 3}
  m_Name: Gargoyle
  m_EditorClassIdentifier: 
  CardName: Gargoyle
  Description: 
  Art: {fileID: 21300000, guid: ef9568f09532d9c4e941a63df18b3e87, type: 3}
  Attack: 6
  Health: 5
  BaseAttack: 6
  BaseHealth: 5
  ThreatValue: 8
