%YAML 1.1
%TAG !u! tag:unity3d.com,2011:
--- !u!114 &11400000
MonoBehaviour:
  m_ObjectHideFlags: 0
  m_CorrespondingSourceObject: {fileID: 0}
  m_PrefabInternal: {fileID: 0}
  m_GameObject: {fileID: 0}
  m_Enabled: 1
  m_EditorHideFlags: 0
  m_Script: {fileID: 11500000, guid: 01b459e333b7530499df24c90a8a4705, type: 3}
  m_Name: Medusa
  m_EditorClassIdentifier: 
  CardName: Medusa
  Description: '"There is no antidote for me."'
  Art: {fileID: 21300000, guid: 94c7faa0c8540b54b8385ff19b8747a9, type: 3}
  Attack: 13
  Health: 6
  BaseAttack: 13
  BaseHealth: 6
  ThreatValue: 15
