%YAML 1.1
%TAG !u! tag:unity3d.com,2011:
--- !u!114 &11400000
MonoBehaviour:
  m_ObjectHideFlags: 0
  m_CorrespondingSourceObject: {fileID: 0}
  m_PrefabInternal: {fileID: 0}
  m_GameObject: {fileID: 0}
  m_Enabled: 1
  m_EditorHideFlags: 0
  m_Script: {fileID: 11500000, guid: f3b44c7e7bbaa544ba1478ce10c36d2f, type: 3}
  m_Name: Root
  m_EditorClassIdentifier: 
  Children:
  - {fileID: 11400000, guid: 26d90f3d9ae84e74d8e0dd983c136be1, type: 2}
  - {fileID: 11400000, guid: 199edc11b72c98a44bba1baaf5f9e212, type: 2}
  - {fileID: 11400000, guid: 3434a8c786161864fb222fa6f8599e9c, type: 2}
  NodeTargets: 
  nodePower: 0
  IconSprite: {fileID: 21300000, guid: 0821484d4fe5eb24aaf0f72f9633bd90, type: 3}
  Description: '"You are the warrior."'
