%YAML 1.1
%TAG !u! tag:unity3d.com,2011:
--- !u!114 &11400000
MonoBehaviour:
  m_ObjectHideFlags: 0
  m_CorrespondingSourceObject: {fileID: 0}
  m_PrefabInternal: {fileID: 0}
  m_GameObject: {fileID: 0}
  m_Enabled: 1
  m_EditorHideFlags: 0
  m_Script: {fileID: 11500000, guid: f3b44c7e7bbaa544ba1478ce10c36d2f, type: 3}
  m_Name: Saboteur I
  m_EditorClassIdentifier: 
  Children: []
  NodeTargets: 06000000
  nodePower: 2
  IconSprite: {fileID: 21300000, guid: 99e6e78e5a02db844b33030d91232613, type: 3}
  Description: + {0} to damage reduction Actions
