%YAML 1.1
%TAG !u! tag:unity3d.com,2011:
--- !u!114 &11400000
MonoBehaviour:
  m_ObjectHideFlags: 0
  m_CorrespondingSourceObject: {fileID: 0}
  m_PrefabInternal: {fileID: 0}
  m_GameObject: {fileID: 0}
  m_Enabled: 1
  m_EditorHideFlags: 0
  m_Script: {fileID: 11500000, guid: f3b44c7e7bbaa544ba1478ce10c36d2f, type: 3}
  m_Name: Sage III
  m_EditorClassIdentifier: 
  Children: []
  NodeTargets: 000000000300000005000000
  nodePower: 11
  IconSprite: {fileID: 21300000, guid: 90cca9c2b4ca2f84a9570ada15c39cef, type: 3}
  Description: + {0} damage to targeted Spells
